{
  "realm": "loyalty-admin",
  "bearer-only": true,
  "auth-server-url": "https://idp-ludis.loyaltysci.com/auth",
  "ssl-required": "external",
  "resource": "loyalty-api",
  "credentials": {
    "secret": "f9068861-b0b6-46d0-92ae-7acff94d4ba0"
  }
}